\relax 
\providecommand\hyper@newdestlabel[2]{}
\providecommand*\new@tpo@label[2]{}
\providecommand\HyperFirstAtBeginDocument{\AtBeginDocument}
\HyperFirstAtBeginDocument{\ifx\hyper@anchor\@undefined
\global\let\oldcontentsline\contentsline
\gdef\contentsline#1#2#3#4{\oldcontentsline{#1}{#2}{#3}}
\global\let\oldnewlabel\newlabel
\gdef\newlabel#1#2{\newlabelxx{#1}#2}
\gdef\newlabelxx#1#2#3#4#5#6{\oldnewlabel{#1}{{#2}{#3}}}
\AtEndDocument{\ifx\hyper@anchor\@undefined
\let\contentsline\oldcontentsline
\let\newlabel\oldnewlabel
\fi}
\fi}
\global\let\hyper@last\relax 
\gdef\HyperFirstAtBeginDocument#1{#1}
\providecommand\HyField@AuxAddToFields[1]{}
\providecommand\HyField@AuxAddToCoFields[2]{}
\@writefile{lof}{\contentsline {figure}{\numberline {1}{\ignorespaces I flipped the recovered coordinates around the Y-axis to obtain a 2D-representation which looks closer to reality. Generally MDS cannot predict the correct orientation of the embedding.\relax }}{1}{figure.caption.3}}
\@writefile{lof}{\contentsline {figure}{\numberline {2}{\ignorespaces Blue marks the digit "0", orange the digit "6" and green the digit "9".\relax }}{2}{figure.caption.4}}
\@writefile{lof}{\contentsline {subfigure}{\numberline{(a)}{\ignorespaces {}}}{2}{subfigure.3.1}}
\@writefile{lof}{\contentsline {subfigure}{\numberline{(b)}{\ignorespaces {}}}{2}{subfigure.3.2}}
\@writefile{lof}{\contentsline {figure}{\numberline {3}{\ignorespaces It seems that $k=5$ produces the best mapping for correct clustering as it divides the green cluster rather well from the other two. It seems that blue and orange are hard to separate. If you map it to one dimension, obviously a lot of structure disappears. It stills seems to separate it remarkably well but the yellow cluster is still obscured by the blue one.\relax }}{3}{figure.caption.7}}
\@writefile{lof}{\contentsline {subfigure}{\numberline{(c)}{\ignorespaces {}}}{3}{subfigure.3.3}}
\@writefile{lof}{\contentsline {subfigure}{\numberline{(d)}{\ignorespaces {}}}{3}{subfigure.3.4}}
