\relax 
\providecommand\hyper@newdestlabel[2]{}
\providecommand*\new@tpo@label[2]{}
\providecommand\HyperFirstAtBeginDocument{\AtBeginDocument}
\HyperFirstAtBeginDocument{\ifx\hyper@anchor\@undefined
\global\let\oldcontentsline\contentsline
\gdef\contentsline#1#2#3#4{\oldcontentsline{#1}{#2}{#3}}
\global\let\oldnewlabel\newlabel
\gdef\newlabel#1#2{\newlabelxx{#1}#2}
\gdef\newlabelxx#1#2#3#4#5#6{\oldnewlabel{#1}{{#2}{#3}}}
\AtEndDocument{\ifx\hyper@anchor\@undefined
\let\contentsline\oldcontentsline
\let\newlabel\oldnewlabel
\fi}
\fi}
\global\let\hyper@last\relax 
\gdef\HyperFirstAtBeginDocument#1{#1}
\providecommand\HyField@AuxAddToFields[1]{}
\providecommand\HyField@AuxAddToCoFields[2]{}
\@writefile{lof}{\contentsline {figure}{\numberline {1}{\ignorespaces \relax }}{1}{figure.caption.2}}
\@writefile{lof}{\contentsline {figure}{\numberline {2}{\ignorespaces As you can see for small $\lambda $, the test MSE is a bit bigger than the crossvalidation error. This is unsurprising as a small $\lambda $ entails precise (over-)fitting to the training data and therefore the crossvalidation error is small. However, the test data will be slightly different so the test MSE will be a bit higher. As $\lambda $ gets larger, we see that the test MSE actually drops at $\lambda = 10$ where our training is better for the variation in test data. However, an even bigger $\lambda $ merely produces underfitting and therefore a larger test MSE. At the same time, crossvalidation error rises monotonously with $\lambda $ as a bigger $\lambda $ means stricter regularization of the weights and therefore prevents fitting too much to the training data.\relax }}{1}{figure.caption.3}}
\@writefile{lof}{\contentsline {figure}{\numberline {3}{\ignorespaces As you can see, the cross validation error is the same for $\lambda = 10$, $\lambda = 100$ and $\lambda = 1000$. Neither of those result in the best test error, though, as it appears to be $\lambda \leq 1$.\relax }}{2}{figure.caption.5}}
\@writefile{lof}{\contentsline {figure}{\numberline {4}{\ignorespaces In this case, you can see that the minimum of crossvalidation error and test error coincide (although their are several equal minima). Therefore, crossvalidation does indeed choose the best $\lambda $. However, this seems to be trivial as $\lambda $ does not seem to influence the test error significantly in this case.\relax }}{3}{figure.caption.6}}
\@writefile{lof}{\contentsline {figure}{\numberline {5}{\ignorespaces $\lambda $ determines how much we punish the model complexity and thus can be used to address over- and underfitting. A bigger $\lambda $ increases the regularized risk with more complex models and thus enforces a less complex model. A smaller $\lambda $ does the opposite.\relax }}{5}{figure.caption.8}}
