\relax 
\providecommand\hyper@newdestlabel[2]{}
\providecommand*\new@tpo@label[2]{}
\providecommand\HyperFirstAtBeginDocument{\AtBeginDocument}
\HyperFirstAtBeginDocument{\ifx\hyper@anchor\@undefined
\global\let\oldcontentsline\contentsline
\gdef\contentsline#1#2#3#4{\oldcontentsline{#1}{#2}{#3}}
\global\let\oldnewlabel\newlabel
\gdef\newlabel#1#2{\newlabelxx{#1}#2}
\gdef\newlabelxx#1#2#3#4#5#6{\oldnewlabel{#1}{{#2}{#3}}}
\AtEndDocument{\ifx\hyper@anchor\@undefined
\let\contentsline\oldcontentsline
\let\newlabel\oldnewlabel
\fi}
\fi}
\global\let\hyper@last\relax 
\gdef\HyperFirstAtBeginDocument#1{#1}
\providecommand\HyField@AuxAddToFields[1]{}
\providecommand\HyField@AuxAddToCoFields[2]{}
\@writefile{lof}{\contentsline {figure}{\numberline {1}{\ignorespaces Training data for the ridge regression.\relax }}{6}{figure.caption.5}}
\@writefile{lof}{\contentsline {figure}{\numberline {2}{\ignorespaces Ridge regression with a identity as feature function. Mean squared error are 1.3796, 1.3874 and 1.4153 respectively. The best mean squared error is for the lowest $\lambda $. The mean squared error does not differ much since the underlying feature function is a bad fit regardless of the $\lambda $.\relax }}{6}{figure.caption.6}}
\@writefile{lof}{\contentsline {subfigure}{\numberline{(a)}{\ignorespaces {}}}{6}{subfigure.2.1}}
\@writefile{lof}{\contentsline {subfigure}{\numberline{(b)}{\ignorespaces {}}}{6}{subfigure.2.2}}
\@writefile{lof}{\contentsline {subfigure}{\numberline{(c)}{\ignorespaces {}}}{6}{subfigure.2.3}}
\@writefile{lof}{\contentsline {figure}{\numberline {3}{\ignorespaces Ridge regression with polynomial feature functions. $\lambda $ punishes large weights which occur when the model overfits the training data. Unsurprisingly, the best approximation is reached with a low or zero $\lambda $. However, although the model might fit the training data perfectly, it will most likely fite new data less so.\relax }}{7}{figure.caption.7}}
\@writefile{lof}{\contentsline {subfigure}{\numberline{(a)}{\ignorespaces {}}}{7}{subfigure.3.1}}
\@writefile{lof}{\contentsline {subfigure}{\numberline{(b)}{\ignorespaces {}}}{7}{subfigure.3.2}}
\@writefile{lof}{\contentsline {figure}{\numberline {4}{\ignorespaces MSE in relation to $\lambda $ for a polynomial feature function $\Phi : \mathbb  {R}^2 \DOTSB \mapstochar \rightarrow \mathbb  {R}^6$. The axis for $\lambda $ is log-scaled for better accuracy.\relax }}{7}{figure.caption.8}}
