\relax 
\providecommand\hyper@newdestlabel[2]{}
\providecommand*\new@tpo@label[2]{}
\providecommand\HyperFirstAtBeginDocument{\AtBeginDocument}
\HyperFirstAtBeginDocument{\ifx\hyper@anchor\@undefined
\global\let\oldcontentsline\contentsline
\gdef\contentsline#1#2#3#4{\oldcontentsline{#1}{#2}{#3}}
\global\let\oldnewlabel\newlabel
\gdef\newlabel#1#2{\newlabelxx{#1}#2}
\gdef\newlabelxx#1#2#3#4#5#6{\oldnewlabel{#1}{{#2}{#3}}}
\AtEndDocument{\ifx\hyper@anchor\@undefined
\let\contentsline\oldcontentsline
\let\newlabel\oldnewlabel
\fi}
\fi}
\global\let\hyper@last\relax 
\gdef\HyperFirstAtBeginDocument#1{#1}
\providecommand\HyField@AuxAddToFields[1]{}
\providecommand\HyField@AuxAddToCoFields[2]{}
\@writefile{lof}{\contentsline {figure}{\numberline {1}{\ignorespaces \relax }}{1}{figure.caption.2}}
\@writefile{lof}{\contentsline {subfigure}{\numberline{(a)}{\ignorespaces {}}}{1}{subfigure.1.1}}
\@writefile{lof}{\contentsline {subfigure}{\numberline{(b)}{\ignorespaces {}}}{1}{subfigure.1.2}}
\@writefile{lof}{\contentsline {figure}{\numberline {2}{\ignorespaces \relax }}{1}{figure.caption.3}}
\@writefile{lof}{\contentsline {figure}{\numberline {3}{\ignorespaces \relax }}{2}{figure.caption.4}}
\@writefile{lof}{\contentsline {subfigure}{\numberline{(a)}{\ignorespaces {}}}{2}{subfigure.3.1}}
\@writefile{lof}{\contentsline {subfigure}{\numberline{(b)}{\ignorespaces {}}}{2}{subfigure.3.2}}
\@writefile{lof}{\contentsline {figure}{\numberline {4}{\ignorespaces We can see that here, compared to the similar structure in a), the projected line ist more inbetween the two classes and therefore, the projection is not orthogonal and quite a bit of variance is lost. This is mostly due to the fact that the direction in which the variance is biggest for is different for each class.\relax }}{2}{figure.caption.5}}
\@writefile{lof}{\contentsline {subfigure}{\numberline{(a)}{\ignorespaces {}}}{2}{subfigure.4.1}}
\@writefile{lof}{\contentsline {subfigure}{\numberline{(b)}{\ignorespaces {}}}{2}{subfigure.4.2}}
\@writefile{lof}{\contentsline {figure}{\numberline {5}{\ignorespaces \relax }}{3}{figure.caption.7}}
\@writefile{lof}{\contentsline {figure}{\numberline {6}{\ignorespaces \relax }}{3}{figure.caption.8}}
