\relax 
\providecommand\hyper@newdestlabel[2]{}
\providecommand*\new@tpo@label[2]{}
\providecommand\HyperFirstAtBeginDocument{\AtBeginDocument}
\HyperFirstAtBeginDocument{\ifx\hyper@anchor\@undefined
\global\let\oldcontentsline\contentsline
\gdef\contentsline#1#2#3#4{\oldcontentsline{#1}{#2}{#3}}
\global\let\oldnewlabel\newlabel
\gdef\newlabel#1#2{\newlabelxx{#1}#2}
\gdef\newlabelxx#1#2#3#4#5#6{\oldnewlabel{#1}{{#2}{#3}}}
\AtEndDocument{\ifx\hyper@anchor\@undefined
\let\contentsline\oldcontentsline
\let\newlabel\oldnewlabel
\fi}
\fi}
\global\let\hyper@last\relax 
\gdef\HyperFirstAtBeginDocument#1{#1}
\providecommand\HyField@AuxAddToFields[1]{}
\providecommand\HyField@AuxAddToCoFields[2]{}
\@writefile{lof}{\contentsline {figure}{\numberline {1}{\ignorespaces Crossvalidation error and accuracy of the linear regression model in relation to the inverted regularization strength. The crossvalidation error does not appear to change when rerunning the code. However, it does not return the best parameter (C = 100) for the regression. On further inspection I found that the crossvalidation error is actually equal for several different choices of C.\relax }}{1}{figure.caption.2}}
\@writefile{lof}{\contentsline {figure}{\numberline {2}{\ignorespaces \relax }}{1}{figure.caption.4}}
\@writefile{lof}{\contentsline {figure}{\numberline {3}{\ignorespaces The parameter C regulates the weight regularization. The higher it becomes, the more the border is adjusted to the training data and thus becomes more data-dependent.\relax }}{2}{figure.caption.5}}
\@writefile{lof}{\contentsline {subfigure}{\numberline{(a)}{\ignorespaces {}}}{2}{subfigure.3.1}}
\@writefile{lof}{\contentsline {subfigure}{\numberline{(b)}{\ignorespaces {}}}{2}{subfigure.3.2}}
\@writefile{lof}{\contentsline {subfigure}{\numberline{(c)}{\ignorespaces {}}}{2}{subfigure.3.3}}
\@writefile{lof}{\contentsline {figure}{\numberline {4}{\ignorespaces Crossvalidation error and accuracy of the linear SVM in relation to the inverted regularization strength. The crossvalidation error as well as the best parameter chosen by crossvalidation appears to change when rerunning the code which is probably to random elements when folding the training data. However, it never returns the best parameter C = 1000. \relax }}{3}{figure.caption.6}}
\@writefile{lof}{\contentsline {figure}{\numberline {5}{\ignorespaces Plots of the training and test data for dataset 1.\relax }}{3}{figure.caption.7}}
\@writefile{lof}{\contentsline {subfigure}{\numberline{(a)}{\ignorespaces {}}}{3}{subfigure.5.1}}
\@writefile{lof}{\contentsline {subfigure}{\numberline{(b)}{\ignorespaces {}}}{3}{subfigure.5.2}}
\@writefile{lof}{\contentsline {figure}{\numberline {6}{\ignorespaces Plots of the training and test data for dataset 2.\relax }}{4}{figure.caption.8}}
\@writefile{lof}{\contentsline {subfigure}{\numberline{(a)}{\ignorespaces {}}}{4}{subfigure.6.1}}
\@writefile{lof}{\contentsline {subfigure}{\numberline{(b)}{\ignorespaces {}}}{4}{subfigure.6.2}}
